[
    {
        "ident" : "pd2_daring_lib",
        "version" : 0.031,
        "patchnotes_url" : "https://www.modworkshop.net/mod/38267#changelog",
        "download_url" : "https://gitlab.com/LeftOwlRight/daring-lib/-/archive/main/daring-lib-main.zip"
    }
]
